cl\athorznet\ev02\controller\ControllerAdd.class
cl\athorznet\ev02\model\dao\EquipoDAO.class
cl\athorznet\ev02\model\dao\exceptions\IllegalOrphanException.class
cl\athorznet\ev02\model\dao\exceptions\NonexistentEntityException.class
cl\athorznet\ev02\model\dao\exceptions\PreexistingEntityException.class
cl\athorznet\ev02\controller\ControllerEdit.class
cl\athorznet\ev02\controller\ControllerGrabaEdit.class
cl\athorznet\ev02\controller\ControllerList.class
cl\athorznet\ev02\model\entities\Equipo.class
