C:\Users\jarqu\Documents\NetBeansProjects\Evaluacion02Ciisa\src\main\java\cl\athorznet\ev02\controller\ControllerAdd.java
C:\Users\jarqu\Documents\NetBeansProjects\Evaluacion02Ciisa\src\main\java\cl\athorznet\ev02\controller\ControllerList.java
C:\Users\jarqu\Documents\NetBeansProjects\Evaluacion02Ciisa\src\main\java\cl\athorznet\ev02\model\dao\EquipoDAO.java
C:\Users\jarqu\Documents\NetBeansProjects\Evaluacion02Ciisa\src\main\java\cl\athorznet\ev02\model\dao\exceptions\PreexistingEntityException.java
C:\Users\jarqu\Documents\NetBeansProjects\Evaluacion02Ciisa\src\main\java\cl\athorznet\ev02\model\dao\exceptions\IllegalOrphanException.java
C:\Users\jarqu\Documents\NetBeansProjects\Evaluacion02Ciisa\src\main\java\cl\athorznet\ev02\model\entities\Equipo.java
C:\Users\jarqu\Documents\NetBeansProjects\Evaluacion02Ciisa\src\main\java\cl\athorznet\ev02\controller\ControllerEdit.java
C:\Users\jarqu\Documents\NetBeansProjects\Evaluacion02Ciisa\src\main\java\cl\athorznet\ev02\controller\ControllerGrabaEdit.java
C:\Users\jarqu\Documents\NetBeansProjects\Evaluacion02Ciisa\src\main\java\cl\athorznet\ev02\model\dao\exceptions\NonexistentEntityException.java
